1 Hen 9,1;Michael blickt herab.;#S: Michael;#P: herabblicken;;;;;
1 Hen 9,1;Sureˀēl blickt herab.;#S: Sureˀēl;#P: herabblicken;;;;;
1 Hen 9,1;Rufael blickt herab.;#S: Rufael;#P: herabblicken;;;;;
1 Hen 9,1;Gabriel blickt herab.;#S: Gabriel;#P: herabblicken;;;;;
1 Hen 9,1;Michael sieht das Blut.;#S: Michael;#P: sehen;#O: Blut;;;;
1 Hen 9,1;Sureˀēl sieht das Blut.;#S: Sureˀēl;#P: sehen;#O: Blut;;;;
1 Hen 9,1;Rufael sieht das Blut.;#S: Rufael;#P: sehen;#O: Blut;;;;
1 Hen 9,1;Gabriel sieht das Blut.;#S: Gabriel;#P: sehen;#O: Blut;;;;
1 Hen 9,1;NN vergießt Blut.;#S: NN;#P: vergießen;#O: Blut;;;;
1 Hen 9,1;Michael sieht das Unrecht.;#S: Michael;#P: sehen;#O: Unrecht;;;;
1 Hen 9,1;Sureˀēl sieht das Unrecht.;#S: Sureˀēl;#P: sehen;#O: Unrecht;;;;
1 Hen 9,1;Rufael sieht das Unrecht.;#S: Rufael;#P: sehen;#O: Unrecht;;;;
1 Hen 9,1;Gabriel sieht das Unrecht.;#S: Gabriel;#P: sehen;#O: Unrecht;;;;
1 Hen 9,1;NN verübt Unrecht. ;#S: NN;#P: verüben;#O: Unrecht;;;;
1 Hen 9,2;Die Engel sprachen zueinander.;#S: Engel;#P: sprechen;#O: zu Engel;;;;
1 Hen 9,2;Die Erde schreit.;#S: Erde;#P: schreien;;;;;
1 Hen 9,3;Die Seelen der Menschen klagen zu den Heiligen des Himmels.;#S: Seelen von Menschen;#P: klagen;#O: zu Heiligen von Himmel;;;;
1 Hen 9,3;Die Seelen der Menschen sprechen zu den Heiligen des Himmels.;#S: Seelen von Menschen;#P: sprechen;#O: zu Heiligen von Himmels;;;;
1 Hen 9,3;Die Engel bringen den Rechtsfall vor den Höchsten.;#S: Engel;#P: bringen;#O: Rechtsfall;#O: vor Höchsten;;;
1 Hen 9,4;Die Engel sprechen zu ihrem Herrn.;#S: Engel;#P: sprechen;#O: zu Herrn von Engel;;;;
1 Hen 9,4;Der Herr ist Herr der Herren.;#S: Herr;#O: Herr von Herren ;#P: sein;;;;
1 Hen 9,4;Der Herr ist Gott der Götter.;#S: Herr;#O: Gott von Götter;#P: sein;;;;
1 Hen 9,4;Der Herr ist König der Könige.;#S: Herr;#O: König von Könige;#P: sein;;;;
1 Hen 9,4;Der Thron der Herrlichkeit Gottes ist heilig. ;#S: Thron von Herrlichkeit Gottes;#P: sein;heilig;;;;
1 Hen 9,4;Der Name Gottes ist heilig.;#S: Name Gottes;#P: sein;heilig;;;;
1 Hen 9,4;Der Name Gottes ist gepriesen.;#S: Name Gottes;#P: sein;gepriesen;;;;
1 Hen 9,4;Der Name Gottes ist verherrlicht.;#S: Name Gottes;#P: sein;verherrlicht;;;;
1 Hen 9,5;Gott schafft alles.;#S: Gott;#P: schaffen;#O: alles;;;;
1 Hen 9,5;Die Macht über alles liegt bei Gott.;#S: Macht;über alles;#P: liegen;#O: bei Gott;;;
1 Hen 9,5;Alles ist vor Gott enthüllt.;#S: Alles;#P: sein ;enthüllt ;#O: vor Gott;;;
1 Hen 9,5;Alles ist vor Gott offenbar.;#S: Alles;#P: sein;offenbar;#O: vor Gott;;;
1 Hen 9,5;Gott sieht alles.;#S: Gott;#P: sehen;#O: alles;;;;
1 Hen 9,5;Nichts verbirgt sich vor Gott.;#S: Nichts;#P: verbergen;#O: vor Gott;;;;
1 Hen 9,6;Gott sieht Azāzˀēls Tat.;#S: Gott;#P: sehen;#O: Tat von Azāzˀēl;;;;
1 Hen 9,6;Azāzˀēls lehrt Ungerechtigkeit.;#S: Azāzˀēls;#P: lehren;#O: Ungerechtigkeit;;;;
1 Hen 9,6;Azāzˀēl gibt Geheimnisse preis.;#S: Azāzˀēl;#P: preisgeben;#O: Geheimnisse;;;;
1 Hen 9,6 ;NN bereitet die Geheimnisse.;#S: NN;#P: bereiten;#O: Geheimnisse;;;;
1 Hen 9,7;Semyāzā bringt den Menschen Kenntnis.;#S: Semyāzā;#P: bringen;#O: Kenntnis ;#O: Menschen;;;
1 Hen 9,7;Gott gibt Semyāzā Vollmacht.;#S: Gott;#P: geben;#O: Vollmacht;#O: Semyāzā;;;
1 Hen 9,7;Semyāzā herrscht über die  zu ihm Gehörigen.;#S: Semyāzā;#P: herrschen;#O: über Gehörigen von Semyāzā;;;;
1 Hen 9,8;Die Engel gehen zu den Töchtern der Menschen.;#S: Engel;#P: gehen;zu Töchter von Menschen;;;;
1 Hen 9,8;Die Engel schlafen mit den Frauen.;#S: Engel;#P: schlafen;#O: mit Frauen;;;;
1 Hen 9,8;Die Engel verunreinigen sich.;#S: Engel;#P: sich verunreinigen;;;;;
1 Hen 9,8;Die Engel machen die Sünden offenbar.;#S: Engel;#P: machen;offenbar;#O: Sünden;;;
1 Hen 9,9;Die Frauen gebären Riesen.;#S: Frauen;#P: gebären;#O: Riesen;;;;
1 Hen 9,9;NN füllt die Erde mit Blut an.;#S: NN;#P: füllen;#O: Erde;#O: mit Blut;;;
1 Hen 9,9;NN füllt die Erde mit Unrecht an.;#S: NN;#P: füllen;#O: Erde;#O: Unrecht;;;
1 Hen 9,10;Die Seelen der Toten schreien.;#S: Seelen von Toten;#P: schreien;;;;;
1 Hen 9,10;Die Seelen der Toten klagen.;#S: Seelen von Toten;#P: klagen;;;;;
1 Hen 9,10;Das Seufzen der Seelen steigt auf.;#S: Seufzen von Seelen;#P: aufsteigen;;;;;
1 Hen 9,10;Das Seufzen entkommt.;#S: Seufzen;#P: entkommen;;;;;
1 Hen 9,11;Gott weiß alles.;#S: Gott;#P: wissen;#O: alles;;;;
1 Hen 9,11;Gott weiß das die Engel Betreffende.;#S: Gott;#P: wissen;#O: Betreffende von Engel;;;;
1 Hen 9,11;Gott spricht zu den Engeln.;#S: Gott;#P: sprechen;#O: zu Engel;;;;
1 Hen 9,11;Michael, Sureˀēl, Gabriel und Rufael tun X mit den Engeln.;#S: Michael;#S: Sureˀēl;#S: Gabriel;#S: Rufael;#P: tun;#O: X;#O: mit Engel
