1 Hen 20:4;Raguel ist ein heiliger Engel.;#S: Raguel;heiliger Engel;#P: sein;;
1 Hen 20:4;Raguel rächt sich an Welt und an Lichtern.;#S: Raguel;#P: sich rächen;#O: an Welt;#O: an Lichtern;
1 Hen 20:5;Michael ist ein heiliger Engel.;#S: Michael;heiliger Engel;#P: sein;;
1 Hen 20:5;Michael ist Heerführer des Volks.;#S: Michael;Heerführer des Volks;#P: sein;;
1 Hen 20:6;Sarakiel ist ein heiliger Engel.;#S: Sarakiel;heiliger Engel;#P: sein;;
1 Hen 20:6;Sarakiel ist gesetzt über die Geister der Menschen.;#S: Sarakiel;#P: gesetzt sein;#O: über die Geister der Menschen;;
1 Hen 20:6;Menschen sündigen an Geistern.;#S: Menschen;#P: sündigen;#O: an Geistern;;
1 Hen 20:7;Gabriel ist ein heiliger Engel.;#S: Gabriel;heiliger Engel;#P: sein;;
1 Hen 20:7;Gabriel ist gesetzt über Paradies, Schlangen und Kerubim.;#S: Gabriel;#P: gesetzt sein;#O: über Paradies;#O: über Schlangen;#O: über Kerubim
1 Hen 21:1;Henoch geht dorthin, wo nichts geschaffen ist.;#S: Henoch;#P: gehen;wo nichts geschaffen ist;;
1 Hen 21:2;Hennoch sieht Schreckliches.;#S: Henoch;#P: sehen;#O: Schreckliches;;
1 Hen 21:2;Henoch sieht Himmel und Erde.;#S: Henoch;#P: sehen;#O: Himmel;#O: Erde;
1 Hen 21:2;NN macht Himmel und Erde fest.;#S: NN;#P: festmachen;#O: Himmel;#O: Erde;
1 Hen 21:2;NN bereitet Ort nicht zu.;#S: NN;#P: zubereiten;nicht;#O: Ort;
1 Hen 21:2;Ort ist schrecklich.;#S: Ort;#P: sein;schrecklich;;
1 Hen 21:3;Henoch sieht sieben Sterne.;#S: Henoch;#P: sehen;#O: Sterne;sieben;
1 Hen 21:3;NN bindet Sterne zusammen.;#S: NN;#P: zusammenbinden;#O: Sterne;;
1 Hen 21:3;Sterne sind wie große Berge.;#S: Sterne;#P: sein;wie große Berge;;
1 Hen 21:3;Sterne flammen.;#S: Sterne;#P: flammen;;;
1 Hen 21:4;Henoch spricht.;#S: Henoch;#P: sprechen;;;
1 Hen 21:4;NN bindet Sterne.;#S: NN;#P: binden;#O: Sterne;;
1 Hen 21:4;NN verstößt Sterne.;#S: NN;#P: verstoßen;#O: Sterne;;
1 Hen 21:5;Uriel spricht.;#S: Uriel;#P: sprechen;;;
1 Hen 21:5;Uriel ist bei Henoch.;#S: Uriel;#P: sein;bei Henoch;;
1 Hen 21:5;Uriel führt Henoch.;#S: Uriel;#P: führen;#O: Henoch;;
1 Hen 21:5;Henoch fragt.;#S: Henoch;#P: fragen;;;
1 Hen 21:5;Henoch forscht.;#S: Henoch;#P: forschen;;;
1 Hen 21:5;Henoch verlangt.;#S: Henoch;#P: verlangen;;;
