1 Hen 7,1;Die Engel nehmen sich Frauen.;#S: Engel;#P: sich nehmen;#O: Frauen;;
1 Hen 7,1;Jeder Engel wählt eine Frau aus.;#S: Engel;jeder;#P: wählen;#O: Frau;
1 Hen 7,1;Die Engel gehen zu den Frauen ein.;#S: Engel;#P: gehen;zu Frauen;;
1 Hen 7,1;Die Engel vermischen sich mit den Frauen.;#S: Engel;#P: sich vermischen;#O: mit Frauen;;
1 Hen 7,1;Die Engel lehren die Frauen Zaubermittel.;#S: Engel;#P: lehren;#O: Zaubermittel;#O: Frauen;
1 Hen 7,1;Die Engel lehren die Frauen Beschwörungen.;#S: Engel;#P: lehren;#O: Beschwörungen;#O: Frauen;
1 Hen 7,1;Die Engel zeigen den Frauen das Schneiden von Wurzeln.;#S: Engel;#P: zeigen;#O: Schneiden von Wurzeln;#O: Frauen;
1 Hen 7,2;Die Frauen werden schwanger.;#S: Frauen;#P: schwanger werden;;;
1 Hen 7,2;Die Frauen gebären Riesen.;#S: Frauen;#P: gebären;#O: Riesen;;
1 Hen 7,2;Die Größe der Riesen ist dreitausend Ellen. ;#S: Größe von Riesen;#P: sein;#O: Ellen;dreitausend;
1 Hen 7,3;Die Riesen verzehren den Ertrag der Menschen.;#S: Riesen;#P: verzehren;#O: Ertrag von Menschen;;
1 Hen 7,3;Die Menschen können die Riesen nicht ernähren.;#S: Menschen;#P: ernähren;nicht ;können;#O: Riesen
1 Hen 7,4;Die Riesen wenden sich gegen die Menschen.;#S: Riesen;#P: sich wenden;#O: gegen Menschen;;
1 Hen 7,4;Die Riesen fressen die Menschen.;#S: Riesen;#P: fressen;#O: Menschen;;
1 Hen 7,5;NN versündigt sich an den Vögeln.;#S: NN;#P: versündigen;#O: an Vögeln;;
1 Hen 7,5;NN versündigt sich an den Tieren.;#S: NN;#P: versündigen;#O: an Tieren;;
1 Hen 7,5;NN veründigt sich an den Reptilien.;#S: NN;#P: versündigen;#O: an Reptilien;;
1 Hen 7,5;NN versündigt sich an den Fischen.;#S: NN;#P: versündigen;#O: an Fischen;;
1 Hen 7,5;NN frisst Fleisch des NN.;#S: NN;#P: fressen;#O: Fleisch von NN;;
1 Hen 7,5;NN trinkt Blut des NN.;#S: NN;#P: trinken;#O: Blut von NN;;
1 Hen 7,6;Die Erde klagt über die Frevler.;#S: Erde;#P: klagen;#O: über Frevler;;
