1 Hen 6,1;Menschenkinder werden zahlreich.;#S: Menschenkinder;#P: werden;zahlreich;
1 Hen 6,1;Menschenkinder gebären Töchter.;#S: Menschenkinder;#P: gebären;#O: Töchter;
1 Hen 6,2;Die Engel sind Söhne der Himmel.;#S: Engel;#P: sein;#O: Söhne von Himmel;
1 Hen 6,2;Die Engel sehen die Töchter.;#S: Engel;#P: sehen;#O: Töchter;
1 Hen 6,2;Die Engel begehren die Töchter.;#S: Engel;#P: begehren;#O: Töchter;
1 Hen 6,2;Engel sprechen zueinander.;#S: Engel;#P: sprechen;#O: zu Engeln;
1 Hen 6,2;Die Engel wählen Frauen aus den Menschenkindern.;#S: Engel;#P: wählen;#O: Frauen ;aus Menschenkindern
1 Hen 6,2;Engel zeugen Kinder.;#S: Engel;#P: zeugen;#O: Kinder;
1 Hen 6,3;Semyāza ist der Oberste Engel.;#S: Semyāza;#P: sein;#O: Engel;oberster
1 Hen 6,3;Semyāza spricht zu den Engeln.;#S: Semyāza;#P: sprechen;#O: zu Engel;
1 Hen 6,3;Semyāza fürchtet.;#S: Semyāza;#P: fürchten;;
1 Hen 6,3;Engel führen Tat aus.;#S: Engel;#P: ausführen;#O: Tat;
1 Hen 6,3;Semyāza büßt für ein Vergehen.;#S: Semyāza;#P: büßen;#O: für Vergehen;
1 Hen 6,4;Engel antworten Semyāza.;#S: Engel;#P: antworten;#O: Semyāza;
1 Hen 6,4;Engel sprechen zu Semyāza.;#S: Engel;#P: sprechen;#O: zu Semyāza;
1 Hen 6,4;Engel schwören einen Eid.;#S: Engel;#P: schwören;#O: Eid;
1 Hen 6,4;Engel verpflichten sich gegenseitig.;#S: Engel;#P: verpflichten;#O: Engel;
1 Hen 6,4;Engel geben den Plan auf.;#S: Engel;#P: aufgeben;#O: Plan;
1 Hen 6,4;Die Engel führen das Werk aus.;#S: Engel;#P: ausführen;#O: Werk;
1 Hen 6,5;Die Engel schwören.;#S: Engel;#P: schwören;;
1 Hen 6,5;Die Engel verpflichten sich (gegenseitig) durch Verwünschungen.;#S: Engel;#P: verpflichten;durch Verwünschungen;#O: Engel
1 Hen 6,6;Die Engel steigen herab.;#S: Engel;#P: herabsteigen;;
1 Hen 6,6;Engel nennen den Berg Hermon.;#S: Engel;#P: nennen;Hermon;#O: Berg
1 Hen 6,6;Engel schwören.;#S: Engel;#P: schwören;;
1 Hen 6,6;Engel verpflichten sich gegenseitig.;#S: Engel;#P: verpflichten;#O: Engel;
1 Hen 6,7;Die Obersten heißen Semyāza, Arakiba, Ramēˀēl, Kokabiˀēl, Tamiˀēl, Ramiˀēl, Danˀēl, Ēzēqēˀēl, Barāqˀēl, Asāˀēl, Armāros, Batarˀēl, Anānˀēl, Zakiˀēl, Samsāpēˀēl, Satreˀēl, Turˀēl, Yomyāˀēl, Arāzyāl.;#S: Obersten;#P: heißen;#O: Semyāza, Arakiba, Ramēˀēl, Kokabiˀēl, Tamiˀēl, Ramiˀēl, Danˀēl, Ēzēqēˀēl, Barāqˀēl, Asāˀēl, Armāros, Batarˀēl, Anānˀēl, Zakiˀēl, Samsāpēˀēl, Satreˀēl, Turˀēl, Yomyāˀēl, Arāzyāl.;
1 Hen 6,7;Semyāza ist der Anführer der Engel.;#S: Semyāza;#O: Anführer von Engel;#P: sein;
1 Hen 6,8;Die Engel haben Führer.;#S: Engel;#P: haben;#O: Führer;
1 Hen 6,8;Die Engel sind mit den Führern.;#S: Engel;#P: sein;mit den Führern;
