1 Hen 2,1;NN beobachtet alle Werke am Himmel.;#S: NN;#P: beobachten;am Himmel;#O: Werke;alle;
1 Hen 2,1;Werke ändern ihre Bahnen.;#S: Werke ;#P: ändern;#O: Bahnen der Werke;;;
1 Hen 2,1;NN beobachtet Lichter am Himmel.;#S: NN;#P: beobachten ;am Himmel;#O: Lichter;;
1 Hen 2,1;Lichter gehen ordnungsgemäß auf.;#S: Lichter;#P: aufgehen;ordnungsgemäß;;;
1 Hen 2,1;Lichter gehen alle zu ihrer Zeit unter.;#S: Lichter;#P: untergehen;alle zu ihrer Zeit;;;
1 Hen 2,1;Lichter weichen von ihrer Ordnung ab.;#S: Lichter;#P: abweichen;#O: von Ordnung der Lichter;;;
1 Hen 2,2;NN sieht die Erde.;#S: NN;#P: sehen;#O: Erde;;;
1 Hen 2,2;NN achtet auf die Dinge.;#S: NN;#P: achten;#O: Dinge;;;
1 Hen 2,2;Dinge geschehen auf der Erde vom Anfang bis zum Ende.;#S: Dinge;#P: geschehen;vom Anfang bis zum Ende;#O: auf Erde;;
1 Hen 2,2;Gottes Werk verändert sich in seinem Erscheinen.;#S: Gottes Werk;#P: sich verändern;Gottes  Erscheinen ;;;
1 Hen 2,3;NN sieht die Trockenzeit.;#S: NN;#P: sehen ;#O: Trockenzeit;;;
1 Hen 2,3;NN sieht die Regenzeit.;#S: NN;#P: sehen ;#O: Regenzeit;;;
1 Hen 2,3;NN füllt die ganze Erde mit Wasser.;#S: NN;#P: füllen;#O: Erde;ganze;#O: mit Wasser;
1 Hen 2,3;NN füllt die Erde mit Gewölk.;#S: NN;#P: füllen;#O: Erde;#O: mit Gewölk;;
1 Hen 2,3;NN füllt die Erde mit Tau.;#S: NN;#P: füllen;#O: Erde;#O: mit Tau;;
1 Hen 2,3;NN füllt die Erde mit Regen;#S: NN;#P: füllen;#O: Erde;#O: mit Regen;;
1 Hen 2,3;Wasser, Gewölk, Tau und Regen lagern sich über der Erde.;#S: Wasser, ;#S: Gewölk;#S: Tau;#S: Regen;#P: sich lagern;#O: auf Erde
