09.09 – 09.10.;Ein kur-Vogel frisst an den Honigfeigenbäumen.;#S: kur-Vogel;#P: fressen;#O: an Honigfeigenbäumen;;
09.11.;Eine kiši-Schlange frisst an den Honigfeigenbäumen.;#S: kiši-Schlange;#P: fressen;#O: an Honigfeigenbäumen;;
09.12.;Eine kiši-Ziege frisst an den Honigfeigenbäumen.;#S: kiši-Ziege;#P: fressen;#O: an Honigfeigenbäumen;;
10.01.;Die Ziege verursacht die hängenden Ohren.;#S: Ziege;#P: verursachen;#O: Ohren;hängend;
10.02.;Der Mensch bindet die Ziegenohren an.;#S: Mensch;#P: anbinden;#O: Ziegenohren;;
10.04.;[Der Mensch] soll kiši-Unkraut ins Feuer legen.;#S: [Mensch];#P: legen ;sollen;in Feuer;#O: kiši-Unkraut 
10.05.;[Der Mensch] trinkt das lösende Wasser aus dem KU-engur.;#S: [Mensch];#P: trinken;aus KU-engur;#O: Wasser;lösend
10.06.;[Der Mensch] steht wie ein mes-Baum am Wasserloch.;#S: [Mensch];#P: stehen;wie mes-Baum;am Wasserloch;
