Vs. 01.02-01.03+Rs. 02.01;Samana brüllt am Himmel.;#S: Samana;#P: brüllen;am Himmel;;
Vs. 01.04+Rs. 02.02;Samana tieft einen Gründungspflock in die Unterwelt ein.;#S: Samana;#P: eintiefen;in Unterwelt;#O: Gründungspflock;
Vs. 01.05+Rs. 02.03;Samana bindet Himmelsgottheiten. ;#S: Samana;#P: binden;#O: Himmelsgottheiten;;
Vs. 01.06+Rs. 02.04;Samana bindet Unterweltsgottheiten.;#S: Samana;#P: binden;#O: Unterweltsgottheiten;;
Vs. 01.07+Rs. 02.05;Samana bindet Utu am Horizont.;#S: Samana;#P: binden;am Horizont;#O: Utu;
Vs. 01.08+Rs. 02.06;Samana bindet Nanna am Abendhimmel.;#S: Samana;#P: binden;am Abendhimmel;#O: Nanna;
Vs. 01.09+Rs. 02.07;Samana bindet einen Stier im Pferch.;#S: Samana;#P: binden;im Pferch;#O: Stier;
Vs. 01.10+Rs. 02.07;Samana bindet ein Schaf in der Hürde.;#S: Samana;#P: binden;in Hürde;#O: Schaf;
Rs. 02.08;NN leitet Samana vom Inneren [des Patienten] wie von einem Kanal ab.;#S: NN;#P: ableiten;wie von Kanal;#O: Samana;#O: vom Inneren [von Patienten]
Rs. 02.09;NN reinigt [Samana] wie eine Bewässerungsrinne.;#S: NN;#P: reinigen;wie Bewässerungsrinne;#O: [Samana];
Rs. 02.10;Samana erlischt wie arina-Feuer.;#S: Samana;#P: erlöschen;wie arina-Feuer;;
Rs. 02.11;Samana gewinnt nie wieder seine Einheit wie zerstreutes Gras.;#S: Samana;#P: gewinnen;nie wieder;wie zerstreutes Gras;#O: Einheit von Samana
