Z. 30;Dumuzis kleine Schwester steht für Tränenklagen zur Verfügung.;#S: Schwester von Dumuzi;kleine;#P: stehen;zur Verfügung;#O: für Tränenklagen;;
Z. 60-64;Die sieben Ritualkundigen kennen die Ritualsprüche von Arali.;#S: Ritualkundige;sieben;#P:kennen;#O: Ritualsprüche von Arali;;;
Z. 60-64;Die Ritualkundigen sind göttliche Reinigungspriester.;#S: Ritualkundige;göttliche Reinigungspriester;#P: sein;;;;
Z. 65;Die Ritualkundigen sind Berater von Tag und Nacht.;#S: Ritualkundige;Berater von Tag und Nacht;#P: sein;;;;
Z. 12+32;Innana bringt das E-ana vom Himmel auf die Erde.;#S: Innana;#P: bringen;vom Himmel;auf Erde;#O: E-ana;;
Z. 81;NN zerstört den Pappel-Baum und den illur-Baum. ;#S: NN;#P: zerstören;#O: Pappel-Baum;#O: illur-Baum;;;
Z. 1-5;Dumuzi vermehrt Tiere.;#S: Dumuzi;#P: vermehren;#O: Tiere;;;;
Z. 55-56;Dumuzi kümmert sich um Gras und Wasser für seine Tiere.;#S: Dumuzi;#P: sich kümmern;#O: um Gras;#O: um Wasser;#O: für Tiere von Dumuzi;;
Z. 49;Dumuzi setzt sich auf den Thron.;#S: Dumuzi;#P: sich setzen;auf Thron;;;;
Z. 22;Der Hirte Dumuzi geht mit [lil-Totengeist] weg.;#S: Hirte;Dumuzi;#P: weggehen;#O: mit [lil-Totengeist];;;
Z. 22;[Der lil-Totengeist handelt schlimm.];#S: [lil-Totengeist];#P: [handeln];[schlimm];;;;
Z. 23-25;[Der lil-Totengeist] tötet die Muttertiere.;#S: [lil-Totengeist];#P: töten;#O: Muttertiere;;;;
Z. 23-25;[Der lil-Totengeist] isst die Jungtiere.;#S: [lil-Totengeist];#P: essen;#O: Jungtiere;;;;
Z. 26;Der lil-Totengeist stößt das Butterfass um.;#S: lil-Totengeist;#P: umstoßen;#O: Butterfass;;;;
Z. 44-45;Die großen und kleinen Dämonen umzingeln Dumuzi. ;#S: Dämonen;groß;#S: Dämonen;klein;#P: umzingeln;#O: Dumuzi;
Z. 47-48;Dämonen packen Dumuzi beim Misthaufen.;#S: Dämonen;#P: packen;beim Misthaufen;#O: Dumuzi;;;
Z. 49;[Dämonen packen Dumuzi an den Oberschenkeln].;#S: [Dämonen];#P: [packen];[an Oberschenkeln];#O: [Dumuzi];;;
Z. 50;NN macht etwas mit dem Butterfass.;#S: NN;#P: machen;#O: etwas;#O: mit Butterfass;;;
Z. 51-52;Dumuzi lebt nicht mehr.;#S: Dumuzi;#P: leben;nicht;mehr;;;
Z- 53-54;[Die Dämonen] fesseln Dumuzi.;#S: [Dämonen];#P: fesseln;#O: Dumuzi;;;;
Z. 55-56;[Die Dämonen] führen Dumuzi in die Unterwelt. ;#S: [Dämonen];#P: führen;in Unterwelt;#O: Dumuzi;;;
Z. 55-56;Die Unterwelt ist ein Ort ohne Essen und Trinken.;#S: Unterwelt;Ort ohne Essen und Trinken;#P: sein;;;;
Z. 55-56;Dumuzi hat kein Essen und Trinken.;#S: Dumuzi;#P: haben;#O: Essen;kein;#O: Trinken;kein;
Z. 53-54;[Die Dämonen] führen Dumuzi in der Unterwelt zu Ereškigal.;#S: [Dämonen];#P: führen;in Unterwelt;#O: Dumuzi;#O: zu Ereškigal;;
Z. 57-59;[Die Dämonen] führen den gefesselten Dumuzi zum Ort der Schicksalsbestimmung.;#S: [Dämonen];#P: führen;zum Ort von Schicksalsbestimmung;#O: Dumuzi;gefesselt;;
Z. 20-21+57;[Ereškigal und andere Götter] versammeln sich zu [Dumuzis] Schicksalsbestimmung. ;#S: [Ereškigal und andere Götter];#P: sich versammeln;#O: zu [Dumuzis] Schicksalsbestimmung;;;;
Z. 58;Eine Rettungsmöglichkeit durch Heilkunst besteht nicht am Ort der Schicksalsbestimmung. ;#S: Rettungsmöglichkeit;#P: bestehen;nicht;am Ort von Schicksalsbestimmung;#O: durch Heilkunst;;
Z. 58;[Dumuzis Urteil lautet Tod].;#S: Urteil von Dumuzi;#P: lauten;#O: Tod;;;;
Z. 59;Blut verdunkelt den Ort [der Schicksalsbestimmung].;#S: Blut;#P: verdunkeln;#O: Ort [von Schicksalsbestimmung];;;;
Z. 20-21;Dumuzi beklagt seine Schicksalsbestimmung.;#S: Dumuzi;#P: beklagen;#O: Schicksalsbestimmung von Dumuzi;;;;
Z. 22-26;#T Dumuzi beklagt das Wüten des lil-Totengeistes unter seinen Tieren.;#S: Dumuzi;#P: beklagen;#O: Wüten von lil-Totengeist;unter Tieren von Dumuzi;;;
Z. 27-29;#T Dumuzi wünscht.;#S: Dumuzi;#P: wünschen;;;;;
Z. 27-29;"Männliche Tiere und verwaiste Jungtiere sollen klagen.";#S: Tiere;männlich;#S: Jungtiere;verwaist;#P: klagen;sollen;
Z. 27;"Die großen Ziegenböcke sollen den Nacken [aus Trauer] zur Erde senken.";#S: Ziegenböcke;groß;#P: senken;sollen;zur Erde;[aus Trauer];#O: Nacken
Z. 28;"Die kleine Ziegenböcke sollen weinen." ;#S: Ziegenböcke;klein;#P: weinen;sollen;;;
Z. 29;"Die mutterlosen Lämmer sollen an den Mauerwurzeln schreien.";#S: Lämmer;mutterlos;#P: schreien;sollen;an Mauerwurzeln;;
Z. 30;"Dumuzis kleine Schwester soll für NN ein šaneša-Bittgebet anstimmen.";#S: Schwester von Dumuzi;klein;#P: anstimmen;sollen;#O: šaneša-Bittgebet;#O: für NN;
Z. 31;"Der Hund soll in Steppe der lil-Totengeister bitter schreien.";#S: Hund;#P: schreien;sollen;bitter;in Steppe von lil-Totengeistern;;
Z. 32;"Dumuzis Gemahlin Innana soll in ihrem E-ana bitter weinen";#S: Innana;Gemahlin von Dumuzi;#P: weinen;sollen;in E-ana von Innana;bitter;
Z. 34-39;#T "Dumuzis Schwester Ĝeštinana soll Bestattungsrituale durchführen." ;#S: Ĝeštinana;Schwester von Dumuzi;#P: durchführen;sollen;#O: Bestattungsrituale;;
Z. 40;#T "Dumuzi beklagt unmögliche Rückkehr.";#S: Dumuzi;#P: beklagen;#O: Rückkehr;unmöglich;;;
Z. 40+42;"Dumuzi gleitet in einer Erdspalte in der Unterwelt aus.";#S: Dumuzi;#P: ausgleiten;in Erdspalte;in Unterwelt;;;
Z. 41;"Das Tor der Unterwelt schließt Dumuzi ein.";#S: Tor von Unterwelt;#P: einschließen;#O: Dumuzi;;;;
Z. 40-43;"Dumuzi kann nicht aus der Unterwelt zurückkehren.";#S: Dumuzi;#P: zurückkehren;nicht;können;aus Unterwelt;;
Z. 84;Ein Hund liegt bei [Dumuzis] Leichnam.;#S: Hund;#P: liegen;bei Leichnam [von Dumuzi];;;;
Z. 85;Ein Rabe sitzt bei [Dumuzis] Essen. ;#S: Rabe;#P: sitzen;bei Essen [von Dumuzi];;;;
Z. 86;Der Hund isst etwas von NN.;#S: Hund;#P: essen;#O: etwas von NN;;;;
Z. 86;Der Hund legt sich an [Dumuzis] Füße.;#S: Hund;#P: sich legen;an Füße von Dumuzi;;;;
Z. 87;Der Rabe isst etwas von NN.;#S: Rabe;#P: essen;#O: etwas;#O: von NN;;;
Z. 87;Der Rabe steigt zum Himmel hinauf.;#S: Rabe;#P: hinaufsteigen;zum Himmel;;;;
Z. 1+5;NN bedeckt Dumuzis Haupt mit einem Tuch. ;#S: NN;#P: bedecken;#O: Haupt von Dumuzi;#O: mit Tuch;;;
Z. 51-52;Innana richtet ein Festmahl für Dumuzi aus. ;#S: Innana;#P: ausrichten;#O: Festmahl;#O: für Dumuzi;;;
Z. 60-64;Die sieben Ritualkundigen führen die Ritualsprüche von Arali für Dumuzi durch.;#S: Ritualkundige;sieben;#P: durchführen;#O: Ritualsprüche von Arali;#O: für Dumuzi;;
Z. 65;Die sieben Ritualkundigen kennen keine Gemahlin und Schwester. ;#S: Ritualkundige;sieben;#P: kennen;#O: Gemahlin;keine;#O: Schwester;keine
Z. 66;Die sieben Ritualkundigen kennen im Himmel und auf Erden Ritualsprüche. ;#S: Ritualkundige;sieben;#P: kennen;im Himmel;auf Erde;#O: Ritualsprüche;
Z. 60-64;Die sieben Ritualkundigen machen etwas mit dem ḫalub-Baum.;#S: Ritualkundige;sieben;#P: machen;#O: etwas;#O: mit ḫalub-Baum;;
Z. 67;Die sieben Ritualkundigen befestigen einen unendlich langen Faden im Himmel.;#S: Ritualkundige;sieben;#P: befestigen;im Himmel;#O: Faden;unendlich lang;
Z. 73;Niemand kannte vorher den unendlich langen Faden.;#S: Niemand;#P: kennen;vorher;#O: Faden;unendlich lang;;
Z. 68;Die sieben Ritualkundigen reißen aus dem Himmel Schreckensstrahlen heraus. ;#S: Ritualkundige;sieben;#P: herausreißen;aus Himmel;#O: Schreckensstrahlen;;
Z. 74;Niemand konnte vorher [Schreckensstrahlen] herunterreißen.;#S: Niemand;#P: herunterreißen;können;vorher;#O: [Schreckensstrahlen];;
Z. 69;Die sieben Ritualkundigen befestigen den unendlich langen Faden für [Dumuzi]. ;#S: Ritualkundige;sieben;#P: befestigen;#O: Faden;unendlich lang;#O: für [Dumuzi];
