Gen 4,1;Der Mensch erkennt seine Frau.;#S: Mensch;#P: erkennen;#O: Frau von Mensch;Eva;
Gen 4,1;Die Frau wird schwanger.;#S: Frau;#P: werden;schwanger;;
Gen 4,1;Die Frau gebiert Kain.;#S: Frau;#P: gebären;#O: Kain;;
Gen 4,1;Die Frau sagt:;#S: Frau;#P: sagen;;;
Gen 4,1;"Die Frau bringt einen Mann hervor mit dem HERRn.";#S: Frau;#P: hervorbringen;#O: Mann;#O: mit HERRn;
Gen 4,2;Die Frau gebiert noch einmal.;#S: Frau;#P: gebären;noch einmal;;
Gen 4,2;Die Frau gebiert seinen Bruder.;#S: Frau;#P: gebären;#O: Bruder von Kain;;
Gen 4,2;Die Frau gebiert Abel.;#S: Frau;#P: gebären;#O: Abel;;
Gen 4,2;Abel wird Schafhirt.;#S: Abel;#P: werden;#O: Schafhirt;;
Gen 4,2;Kain wird ein Akerbauer.;#S: Kain;#P: werden;#O: Ackerbauer;;
Gen 4,3;[Eine Opfergabe] geschieht nach einiger Zeit.;#S: [Opfergabe];#P: geschehen;nach einiger Zeit;;
Gen 4,3;Kain bringt dem HERRn eine Opfergabe dar von den Früchten des Ackerbodens.;#S: Kain;#P: bringen;#O: eine Opfergabe von Früchten des Ackerbodens;#O: HERRn;
Gen 4,4;Abel bringt von den Erstlingen seiner Herde.;#S: Abel;#P: bringen;#O: Erstlinge von der Herde Abels;;
Gen 4,4;Abel bringt von dem Fett der Herde.;#S: Abel;#P: bringen;#O: von dem Fett von der Herde ;;
Gen 4,4;Der HERR blickt auf Abel.;#S: HERR;#P: blicken;#O: auf Abel;;
Gen 4,4;Der HERR blickt auf seine Opfergabe.;#S: HERR;#P: blicken;#O: auf Obfergabe von Abel ;;
Gen 4,5;Der HERR blickt nicht auf die Opfergabe des Kain.;#S: HERR;#P: blicken;nicht;#O: auf Opfergabe von Kain;
Gen 4,5;Kain wird sehr zornig.;#S: Kain;#P: werden;sehr zornig;;
Gen 4,5;Kain senkt sein Gesicht.;#S: Kain;#P: senken;#O: Gesicht von Kain;;
Gen 4,6;Der HERR spricht zu Kain:;#S: HERR;#P: sprechen;#O: zu Kain;;
Gen 4,6;"Kain ist zornig.";#S: Kain;#P: sein;zornig ;;
Gen 4,6;"Das Gesicht des Kain senkt sich.";#S: Gesicht des Kain;#P: sich senken;;;
Gen 4,7;"NN ist nicht.";#S: NN;#P: sein;nicht;;
Gen 4,7;"NN tut recht.";#S: NN;#P: tun;recht;;
Gen 4,7;"NN erhebt sich.";#S: NN;#P: sich erheben;;;
Gen 4,7;"NN tut nicht recht.";#S: NN;#P: tun;nicht;recht;
Gen 4,7;"Die Sünde lergert vor der Tür.";#S: Sünde;#P: lagern;vor Tür ;;
Gen 4,7;"[Kain] verlangt nach Sünde.";#S: [Kain];#P: verlangen;#O: nach Sünde;;
Gen 4,7;"[Kain] herrscht über die Sünde.";#S: [Kain];#P: herrschen;#O: über Sünde ;;
Gen 4,8;Kain spricht zu seinem Bruder Abel.;#S: Kain;#P: sprechen;#O: zu Abel;Bruder von Kain;
Gen 4,8;Kain und Abel sind auf dem Feld.;#S: Kain;#S: Abel;#P: sein;auf Feld;
Gen 4,8;Kain erhebt sich gegen seinen Bruder Abel.;#S: Kain;#P: sich erheben;#O: gegen Abel;Bruder von Kain ;
Gen 4,8;Kain erschlägt Abel.;#S: Kain;#P: erschlagen;#O: Abel;;
Gen 4,9;Der HERR spricht zu Kain:;#S: HERR;#P: sprechen;#O: zu Kain;;
Gen 4,9;"Sein Bruder Abel ist NN.";#S: Kains Bruder Abel;#P: sein;NN;;
Gen 4,9;Kain sagt:;#S: Kain;#P: sagen;;;
Gen 4,9;"Kain weiß nicht [wo Abel ist].";#S: Kain;#P: wissen;nicht;#O: [wo Abel];
Gen 4,9;"Kain ist nicht der Hüter seines Bruders.";#S: Kain;#P: sein;nicht;#O: Hüter des Bruders von Kain;
Gen 4,10;"Der HERR spricht.";#S: HERR;#P: sprechen;;;
Gen 4,10;"Kain hat getan.";#S: Kain;#P: getan;haben;;
Gen 4,10;"Das Blut seines Bruders schreit vom Ackerboden zum HERRn.";#S: Blut von Kains Bruder;#P: schreien;vom Ackerboden;zum HERRn ;
Gen 4,11;"[Der HERR] verflucht nun Kain vom Ackerboden weg.";#S: [HERR];#P: verflucht;nun;vom Ackerboden weg;#O: Kain
Gen 4,11;"Der Ackerboden reißt seinen Mund auf.";#S: Ackerboden;#P: aufreißen;#O: Mund vom  Ackerboden;;
Gen 4,11;"Der Ackerboden empfängt das Blut seines Bruders von seiner Hand.";#S: Ackerboden;#P: empfangen;von der Hand von Kain;#O: Blut von dem  Bruders von Kain;
Gen 4,12;"Kain bebaut den Ackerboden.";#S: Kain;#P: bebauen;#O: Ackerboden;;
Gen 4,12;"Der Ackerboden gibt [Kain] seine Kraft nicht.";#S: Ackerboden;#P: geben;nicht;#O: Kraft von ndem Ackerboden;#O: [Kain]
Gen 4,12;"[Kain] ist unstet auf der Erde.";#S: [Kain];#P: sein;unstet ;auf Erde;
Gen 4,12;"[Kain] ist flüchtig auf der Erde.";#S: [Kain];#P: sein;flüchtig ;auf Erde;
Gen 4,13;Kain sagt zum HERRn.;#S: Kain;#P: sagen;#O: zum HERRn;;
Gen 4,13;"Die Strafe des Kain ist zu groß.";#S: Strafe von Kain;#P: sein;zu groß ;;
Gen 4,13;"Kain trägt die Strafe.";#S: Kain;#P: tragen;#O: Strafe;;
Gen 4,14;"[Der HERR] vertreibt [Kain] von der Fläche des Ackerbodens.";#S: [HERR];#P: vertreiben;von Fläche des Ackerbodens ;#O: [Kain];
Gen 4,14;"[Kain] verbirgt sich vor dem Angesicht [des HERRn].";#S: [Kain];#P: sich verbergen;#O: vor Angesicht [des HERRn];;
Gen 4,14;"[Kain] ist unstet auf der Erde.";#S: [Kain];#P: sein;unstet ;auf Erde;
Gen 4,14;"[Kain] ist flüchtig auf der Erde.";#S: [Kain];#P: sein;flüchtig ;auf Erde;
Gen 4,14;"Jeder Kain Findende erschlägt Kain.";#S: Kain Findende;jeder;#P: erschlagen;#O: Kain;
Gen 4,15;Der HERR spricht zu Kain:;#S: HERR;#P: sprechen;#O: zu Kain;;
Gen 4,15;NN erschlägt Kain.;#S: NN;#P: erschlagen;#O: Kain;;
Gen 4,15;[Der HERR] rächt Kain siebenfach.;#S: [HERR];#P: rächen;siebenfach;#O: Kain;
Gen 4,15;Der HERR macht ein Zeichen  an Kain.;#S: HERR;#P: machen;#O: Zeichen;#O: an Kain ;
Gen 4,15;NN findet Kain.;#S: NN;#P: finden;#O: Kain;;
Gen 4,15;Keiner erschlägt Kain.;#S: Keiner;#P: erschlagen;#O: Kain;;
Gen 4,16;Kain geht weg vom Angesicht des HERRn.;#S: Kain;#P: weggehen;#O: von dem  Angesicht von dem  HERRn;;
Gen 4,16;Kain  wohnt östlich von Eden im Land Nod. ;#S: Kain;#P: leben;östlich von Eden;im Land Nod;
