Z. N1;Gilgameš liebt Gemahlinnen.;#S: Gilgameš;#P: lieben ;#O: Gemahlinnen ;;;;
Z. N1;Gilgameš liebt Kinder.;#S: Gilgameš;#P: lieben ;#O: Kinder;;;;
Z. N2;Gilgameš liebt bevorzugte Gemahlin.;#S: Gilgameš;#P: lieben ;#O: Gemahlin;bevorzugte;;;
Z. N2;Gilgameš liebt kleinere Gemahlin. ;#S: Gilgameš;#P: lieben ;#O: Gemahlin;kleinere;;;
Z. N3;Gilgameš liebt Sänger.;#S: Gilgameš;#P: lieben ;#O: Sänger;;;;
Z. N4;Gilgameš liebt Mundschenk.;#S: Gilgameš;#P: lieben ;#O: Mundschenk;;;;
Z. N4;Gilgameš liebt Oberbarbier.;#S: Gilgameš;#P: lieben ;#O: Oberbarbier;;;;
Z. N5;Gilgameš liebt Untergebene des Palastes.;#S: Gilgameš;#P: lieben ;#O: Untergebene von Palast;;;;
Z. N6;Gilgameš liebt Besitztümer.;#S: Gilgameš;#P: lieben ;#O: Besitztümer;;;;
Z. N7;NN gibt Palast Anweisungen.;#S: NN;#P: geben ;#O: Anweisungen ;#O: Palast;;;
Z. N7;Palast legt sich mit Gilgameš in Gilgamešs Grab.;#S: Palast;#P: sich legen ;ins Grab von Gilgameš ;#O: mit Gilgameš;;;
Z. N8;Gilgameš ist der Sohn der Ninsumun.;#S: Gilgameš;Sohn von Ninsumun;#P: sein;;;;
Z. N9-28;#T Gilgameš bereitet Geschenke für Unterweltsbewohner aus. ;#S: Gilgameš;#P: ausbreiten ;#O: Geschenke ;#O: für Unterweltsbewohner;;;
Z. N9;Gilgameš breitet Audienzgeschenke für Ereškigal aus.;#S: Gilgameš;#P: ausbreiten ;#O: Audienzgeschenke;#O: für Ereškigal;;;
Z. N10;Gilgameš breitet Geschenke für Namtar aus.;#S: Gilgameš;#P: ausbreiten ;#O: Geschenke ;#O: für Namtar;;;
Z. N11;Gilgameš breitet etwas für Dimmekug aus.;#S: Gilgameš;#P: ausbreiten ;#O: etwas ;#O: für Dimmekug;;;
Z. N11;NN staunt über Gilgamešs Geschenk für Dimmekug.;#S: NN;#P: staunen ;#O: über Geschenk von Gilgameš;#O: für Dimmekug;;;
Z. N12;Gilgameš breitet Geschenke für Bitti aus.;#S: Gilgameš;#P: ausbreiten ;#O: Geschenke ;#O: für Biti;;;
Z. N13;Gilgameš breitet Geschenke für Ningešzida und Dumuzi aus.;#S: Gilgameš;#P: ausbreiten ;#O: Geschenke ;#O: für Ningešzida;#O: für Dumuzi;;
Z. N14;Gilgameš breitet Geschenke für Enki, Ninki, Enmul, Ninmul aus.;#S: Gilgameš;#P: ausbreiten ;#O: Geschenke ;#O: für Enki;#O: für Ninki;#O: für Enmul;#O: für Ninmul
Z. N15;Gilgameš breitet Geschenke für En-du-kuga (und) Nin-du-kuga aus.;#S: Gilgameš;#P: ausbreiten ;#O: Geschenke ;#O: für En-du-kuga;#O: für Nin-du-kuga;;
Z. N16;Gilgameš breitet Geschenke für En-da-šurima (und) Nin-da-šurima aus.;#S: Gilgameš;#P: ausbreiten ;#O: Geschenke ;#O: für En-da-šurima;#O: für Nin-da-šurima;;
Z. N17;Gilgameš breitet Geschenke für En-mu-utula (und) En-men-šara aus.;#S: Gilgameš;#P: ausbreiten ;#O: Geschenke ;#O: für En-mu-utula;#O: für En-men-šara;;
Z. N18;Gilgameš breitet Geschenke für Mütter und Väter Enlils aus.;#S: Gilgameš;#P: ausbreiten ;#O: Geschenke ;#O: für Mütter von Enlil;#O: für Väter von Enlil ;;
Z. N19;Gilgameš breitet Geschenke für(?) Šul-pa´e, den Tafelmeister aus.;#S: Gilgameš;#P: ausbreiten ;#O: Geschenke ;#O: für Šul-pa´e;Tafelmeister;;
Z. N20;Gilgameš breitet Geschenke für(?) Sumukkan (und) Nin-hursaĝa aus. ;#S: Gilgameš;#P: ausbreiten ;#O: Geschenke ;#O: für Sumukkan;#O: für Nin-hursaĝa;;
Z. N21;Gilgameš breitet Geschenke für(?) die Anuna vom Heiligen Hügel aus. ;#S: Gilgameš;#P: ausbreiten ;#O: Geschenke ;#O: Anuna vom Heiligen Hügel;;;
Z. N22;Gilgameš breitet Geschenke für die großen Fürsten vom Heiligen Hügel aus.;#S: Gilgameš;#P: ausbreiten ;#O: Geschenke ;#O: für Fürsten vom Heiligen Hügel;große;;
Z. N23;Gilgameš breitet Geschenke für die verstorbenen en-Priester aus.;#S: Gilgameš;#P: ausbreiten ;#O: Geschenke ;#O: für en-Priester;verstorbene;;
Z. N24;Gilgameš breitet Geschenke für die verstorbenen lagal-Priester aus.;#S: Gilgameš;#P: ausbreiten ;#O: Geschenke ;#O: für lagal-Priester;verstorbene;;
Z. N25;Gilgameš breitet Geschenke für [die verstorbenen] lumah- (und) nin-diĝir-Priester(innen) aus. ;#S: Gilgameš;#P: ausbreiten ;#O: Geschenke ;#O: für lumah-Priester;[verstorbene];#O: für nin-diĝir-Priester(innen);verstorbene
Z. N26;Gilgameš breitet Geschenke [für die verstorbenen] gudu(Reinigungs-)Priester (und) Leinen-Gekleideten aus. ;#S: Gilgameš;#P: ausbreiten ;#O: Geschenke ;#O: für gudu(Reinigungs-)Priester;[verstorbenen];#O: für die Leinen-Gekleideten;
Z. N27;Gilgameš breitet Geschenke für die in Leder Gekleideten aus. ;#S: Gilgameš;#P: ausbreiten ;#O: Geschenke ;#O: für die Leder-Gekleideten ;;;
Z. N28;Gilgameš breitet Geschenke für NN aus. ;#S: Gilgameš;#P: ausbreiten ;#O: Geschenke ;#O: für NN;;;
Z. N29;Gilgameš stirbt.;#S: Gilgameš;#P: sterben;;;;;
Z. N31;NN gießt Wasser aus.;#S: NN;#P: ausgießen;#O: Wasser ;;;;
Z. N32;NN spaltet.;#S: NN;#P: spalten ;;;;;
Z. N33;NN grüßt Götter.;#S: NN;#P: grüßen;#O: Götter;;;;
Z. N34;Bevölkerung Uruks setzen etwas nicht.;#S: Bevölkerung von Uruk ;#P: setzten ;nicht;#O: etwas;;;
Z. N35;NN macht etwas in der Erde fein.;#S: NN;#P: fein sein;machen ;in Erde;#O: etwas;;
Z. N36;Gilgameš ist krank.;#S: Gilgameš;krank;#P: sein ;;;;
Z. N37;Gilgameš ist bekannt.;#S: Gilgameš;bekannt;#P: sein ;;;;
Z. N38;Gilgameš ist tätig für das Haus Enlils.;#S: Gilgameš;#P: tätig sein ;#O: für Haus von Enlil;;;;
Z. N40;NN gebiert königlichen Gegener für Gilgameš nicht.;#S: NN;#P: gebären;nicht;#O: Gegner;königlichen;#O: für Gilgameš;
Z. N42;Gilgameš ist Herr von Kulaba.;#S: Gilgameš;Herr von Kulaba;#P: sein;;;;
Z. N42;Gilgameš's Preis ist süß.;#S: Preis von Gilgeameš;süß;#P: sein ;;;;
