12aβ;Der Babylonische König ist der Strahlende Sohn des Morgenlichtes.;#S: König;babylonisch;Strahlende Sohn von Morgenlicht;#P: sein;;
12bβ;Der Babylonische König besiegt Völker.;#S: König;babylonisch;#P: besiegen;#O: Völker;;
6;Der babylonische König schlägt ohne Unterlass Völker im Zorn.;#S: König;babylonisch;#P: schlagen;ohne Unterlass;im Zorn;#O: Völker
16b;Der babylonische König versetzt die Erde und die Königreiche in Unruhe.;#S: König;babylonisch;#P: versetzen;in Unruhe;#O: Erde;#O: Königreiche
17aα;Der babylonische König macht den Erdkreis zur Wüste.;#S: König;babylonisch;#P: machen;#O: Erdkreis;#O: zur Wüste;
17aβ;Der babylonische König reißt seine Städte ein.;#S: König;babylonisch;#P: einreißen;#O: Städte von babylonischen König;;
17b;Der babylonische König lässt seine Gefangenen nicht frei.;#S: König;babylonisch;#P: freilassen;nicht;#O: Gefangene von babylonischen König;
20aβ;Der babylonische König verdirbt sein Land.;#S: König;babylonisch;#P: verderben;#O: Land von babylonischen König;;
20aγ;Der babylonische König tötet sein Volk.;#S: König;babylonisch;#P: töten;#O: Volk von babylonischen König;;
13aαβ;Der babylonische König will in den Himmel hinaufsteigen.;#S: König;babylonisch;#P: hinaufsteigen;wollen;in Himmel;
13aγδ;Der babylonische König will seinen Thron über den Sternen aufstellen.;#S: König;babylonisch;#P: aufstellen;wollen;über Sternen;#O: Thron von babylonischen König
13b;Der babylonische König will auf dem Gipfel des Gottesberges Zaphon sitzen.;#S: König;babylonisch;#P: sitzen;wollen;auf Gipfel von Gottesberg Zaphon;
14a;Der babylonische König will auf die Wolken hinaufsteigen.;#S: König;babylonisch;#P: hinaufsteigen;wollen;auf Wolken;
14b;Der babylonische König will sich dem höchsten Gott gleichstellen.;#S: König;babylonisch;#P: sich gleichstellen;#O: Gott;höchsten;
12aα;(der babylonische König steigt in den Himmel auf.);#S: König;babylonisch;#P: aufsteigen;in Himmel;;
12aα;Der babylonische König fällt vom Himmel.;#S: König;babylonisch;#P: fallen;vom Himmel;;
12bα;NN schmettert den babylonischen König auf die Erde.;#S: NN;#P: schmettern;auf Erde;#O: König;babylonisch;
15;NN führt den babylonischen König auf die Erde.;#S: NN;#P: führen;auf Erde;#O: König;babylonisch;
11a;NN führt den Hochmut und Prunk des babylonischen Königs in die Unterwelt hinab.;#S: NN;#P: hinabführen;in Unterwelt;#O: Hochmut von babylonischen König;#O: Prunk von babylonischen König;
18-20aα;Der babylonische König stirbt ohne Grab auf dem Schlachtfeld.;#S: König;babylonisch;#P: sterben;ohne Grab;auf Schlachtfeld;
7a;Die ganze Erde ruht.;#S: Erde;ganz;#P: ruhen;;;
7b;Die Bewohner der Erde jubeln.;#S: Bewohner von Erde;#P: jubeln;;;;
8a;Die Wacholderbäume und Libanonzedern freuen sich über den babylonischen König.;#S: Wacholderbäume;#S: Libanonzedern;#P: sich freuen;#O: über König;babylonisch;
8b;Die Wacholderbäume und Libanonzedern sprechen zum babylonischen König.;#S: Wacholderbäume;#S: Libanonzedern;#P: sprechen;#O: zu König;babylonisch;
8b;Kein Holzfäller fällt mehr die Wacholderbäume und Libanonzedern.;#S: Holzfäller;kein;#P: fällen;#O: Wacholderbäume;#O: Libanonzedern;
16aα;NN sehen den babylonischen König.;#S: NN;#P: sehen;#O: König;babylonisch;;
16a;NN betrachten den babylonischen König nachdenklich.;#S: NN;#P: betrachten;nachdenklich;#O: König;babylonisch;
9aβ;Der babylonische König erreicht die Unterwelt.;#S: König;babylonisch;#P: erreichen;#O: Unterwelt;;
9aα;Die Unterwelt erbebt vor dem babylonischen König.;#S: Unterwelt;#P: erbeben;#O: vor König;babylonisch;;
9bα;Die Totengeister der Anführer der Erde wachen auf.;#S: Totengeister von Anführern von der Erde;#P: aufwachen;;;;
9bβ;Die Könige der Völker erheben sich von ihren Thronen.;#S: Könige von Völkern;#P: sich erheben;von Thronen von Königen von Völkern;;;
10a;Die Toten sprechen zum babylonischen König.;#S: Toten;#P: sprechen;#O: zu König;babylonisch;;
10b;Der babylonische König wird den Toten gleich.;#S: König;babylonisch;#P: gleich werden;#O: Toten;;
11b;Der babylonische König bettet sich bei Maden und Würmern.;#S: König;babylonisch;#P: sich betten;bei Maden;bei Würmern;
20b-21;NN rottet die Nachkommenschaft des babylonischen Königs aus.;#S: NN;#P: ausrotten;#O: Nachkommenschaft von babylonischen König;;;
