10ab;Hiskia muss in der Ruhe seiner Tage gehen.;#S: Hiskia;#P: gehen;müssen;in Ruhe von Tagen von Hiskia;
10cd;NN beordert Hiskia zu den Toren der Unterwelt.;#S: NN;#P: beordern;zu Toren von Unterwelt;#O: Hiskia;
11ab;Hiskia sieht JHWH nicht mehr im Land der Lebenden.;#S: Hiskia;#P: sehen;nicht mehr;im Land von Lebenden;#O: JHWH
11cd;Hiskia erblickt keinen Menschen mehr bei den Bewohnern der Welt.;#S: Hiskia;#P: erblicken;bei Bewohnern von Welt;#O: Menschen;keine
12ab;NN bricht Hiskias Wohnung ab.;#S: NN;#P: abbrechen;#O: Wohnung von Hiskia;;
12ab;NN nimmt Hiskias Wohnung von ihm weg.;#S: NN;#P: wegnehmen;#O: Wohnung von Hiskia;#O: von Hiskia;
12c;Hiskia rollt sein Leben zusammen.;#S: Hiskia;#P: zusammenrollen;#O: Leben von Hiskia;;
12d;NN schneidet Hiskia von der Kette des Webstuhls ab.;#S: NN;#P: abschneiden;von Kette von Webstuhl;#O: Hiskia;
12e;JHWH gibt Hiskia vom Tag bis in die Nacht preis.;#S: JHWH;#P: preisgeben;von Tag bis in Nacht;#O: Hiskia;
13a;Hiskia schreit bis zum Morgen um Hilfe.;#S: Hiskia;#P: schreien;bis zum Morgen;#O: um Hilfe;
13b;NN zerbricht alle Knochen Hiskias.;#S: NN;#P: zerbrechen;#O: Knochen von Hiskia;alle;
14ab;Hiskia zwitschert.;#S: Hiskia;#P: zwitschern;;;
14ab;Hiskia gurrt.;#S: Hiskia;#P: gurren;;;
14c;Hiskias Augen verzehren sich nach der Höhe.;#S: Augen von Hiskia;#P: sich verzehren;#O: nach Höhe;;
14d;Hiskia erfährt Bedrückung.;#S: Hiskia;#P: erfahren;#O: Bedrückung;;
14d;Hiskia bittet JHWH um Hilfe.;#S: Hiskia;#P: bitten;#O: JHWH;#O: um Hilfe;
15ab;JHWH handelt.;#S: JHWH;#P: handeln;;;
15cd;Hiskia wackelt ständig im Schlaf.;#S: Hiskia;#P: wackeln;ständig;im Schlaf;
15cd;Hiskias Seele ist verbittert.;#S: Seele von Hiskia;verbittert;#P: sein;;
16;JHWH macht Hiskia gesund.;#S: JHWH;#P: machen;gesund;#O: Hiskia;
16;JHWH soll Hiskia am Leben lassen.;#S: JHWH;#P: lassen;sollen;am Leben;#O: Hiskia
17a;Bitteres wird Hiskia zum Heil.;#S: Bitteres;#P: werden;zum Heil;#O: Hiskia;
17bc;JHWH bewahrt Hiskia vor der Unterwelt.;#S: JHWH;#P: bewahren;vor Unterwelt;#O: Hiskia;
17de;JHWH wirft alle Sünden Hiskias hinter seinen Rücken.;#S: JHWH;#P: werfen;hinter Rücken von Hiskia;#O: Sünden von Hiskia;alle
18a;Die Unterwelt preist JHWH nicht.;#S: Unterwelt;#P: preisen;nicht;#O: JHWH;
18b;Der Tod lobt JHWH nicht.;#S: Tod;#P: loben;nicht;#O: JHWH;
18cd;Die Verstorbenen hoffen nicht auf JHWHs Treue.;#S: Verstorbenen;#P: hoffen;nicht;auf Treue von JHWH;
19ab;Der Lebende preist JHWH.;#S: Lebende;#P: preisen;#O: JHWH;;
19ab;Hiskia preist JHWH.;#S: Hiskia;#P: preisen;#O: JHWH;;
19cd;Ein Vater macht den Kindern JHWHs Treue bekannt.;#S: Vater;#P: machen;bekannt;#O: Treue;#O: Kindern von JHWH
20a;JHWH ist bereit Hiskia zu erretten.;#S: JHWH;#P: bereit sein;zu erretten;#O: Hiskia;
20bc;NN spielen Saitenspiel ihr Leben lang beim Haus JHWHs.;#S: NN;#P: spielen;Leben von NN lang;bei Haus von JHWH;#O: Saitenspiel
