A 1-2;Ninurta kommt vom E-kur.;#S: Ninurta;#P: kommen;vom E-kur;;
A 1,15;Die unterirdischen Wasser ängstigen NN.;#S: Wasser;unterirdisch;#P: ängstigen;#O: NN;
A 1,7;Ninurta geht von Enlils Ort nach Eridu.;#S: Ninurta;#P: gehen;vom Ort von Enlil;nach Eridu;
B 1,1,1;Der König geht zum Abzu.;#S: König;#P: gehen;zum Abzu;;
B 1,1,2;NN platziert dem König den Weg zum Abzu.;#S: NN;#P: platzieren;zum Abzu;#O: Weg;#O: König
B 1,13;Ninurta erhebt seinen Kopf im Abzu.;#S: Ninurta;#P: erheben;im Abzu;#O: Kopf von Ninurta;
B 1,14;Ninurta ist die Pracht des E-kur.;#S: Ninurta;Pracht von E-kur;#P: sein;;
B 1,17;Ninurta sitzt mit An und Enki im Innenhof.;#S: Ninurta;#P: sitzen;mit An;mit Enki;im Innenhof
B 1,4;NN erfreut Ninurta im Abzu.;#S: NN;#P: erfreuen;im Abzu;#O: Ninurta;
B 1,5;Der König betritt den Abzu.;#S: König;#P: betreten;#O: Abzu;;
C1,11;Die Götter des Abzu grüßen Ninurta.;#S: Götter von Abzu;#P: grüßen;#O: Ninurta;;
C 1,12;Ninurta erhebt seinen Kopf im Abzu.;#S: Ninurta;#P: erheben;im Abzu;#O: Kopf von Ninurta;
C 1,14-15;Die Anuna-Gottheiten preisen Ninurtas Heldentum.;#S: Anuna-Gottheiten;#P: preisen;#O: Heldentum von Ninurta;;
C 1,21;Ninurtas Strahlen der Herrschaft bedecken die Rebellenländer.;#S: Strahlen von Herrschaft von Ninurta;#P: bedecken;#O: Rebellenländer;;
C 1,6,1;Ninurta ist der König der Reinigungsriten.;#S: Ninurta ;König von Reinigungsriten;#P: sein;;
C 1,6,2;Ninurta passt zum heiligen Thron.;#S: Ninurta;#P: passen;#O: zum Thron;heilig;
C 1,7;Ninurta bestimmt Schicksale mit An im Abzu.;#S: Ninurta ;#P: bestimmen;mit An ;im Abzu;#O: Schicksale
D 1,1-3;NN gibt Ninurta me-Machtmittel und Reinigungsriten.;#S: NN;#P: geben;#O: me-Machtmittel;#O: Reinigungsriten ;#O: Ninurta
D 1,4,1;Die Anzahl der me-Machtmittel im E-igi-šu-galam ist 50.;#S: Anzahl von me-Machtmitteln;50;#P: sein;im E-igi-šu-galam;
D 1,4,2;Ninurta bestimmt die Schicksale im E-igi-šu-galam.;#S: Ninurta;#P: bestimmen;im E-igi-šu-galam;#O: Schicksale;
D 1,5,1;Die Anzahl der me-Machtmittel in der Halle des Abendmahls ist 50.;#S: Anzahl von me-Machtmitteln;50;#P: sein;in Halle von Abendmahl;
D 1,5,2;Ninurtas Tisch steht in der Halle des Abendmahls.;#S: Tisch von Ninurta;#P: stehen;in Halle von Abendmahl;;
