1,1,1;Das Haus ist ein rasender Sturm von Himmel und Erde.;#S: Haus;rasender Sturm von Himmel und Erde;#P: sein;;;
1,1,2;Das Haus schlägt seine Feinde.;#S: Haus;#P: schlagen;#O: Feinde von Haus;;;
1,10,1;Das große Haus ist ein Haus der Kapitalverbrechen.;#S: Haus;groß;Haus von Kapitalverbrechen ;#P: sein;;
1,10,2;Das große Haus verhängt Strafen.;#S: Haus;groß;#P: verhängen;#O: Strafen;;
1,100;Die angeklagte Person trägt keine Kleidung in Nungals Haus.;#S: Person;angeklagt;#P: tragen;nicht;in Haus von Nungal;#O: Kleidung
1.101;Nungals Haus fällt auf die angeklagte Person.;#S: Haus von Nungal;#P: fallen;auf angeklagte Person;;;
1.102;Die angeklagte Person horcht auf Schlangen in der Dunkelheit des Hauses.;#S: Person;angeklagt;#P: horchen;in der Dunkelheit des Hauses;#O: auf Schlangen;
1,103,1;Nungals Haus gebärt gerechte Person;#S: Haus von Nungal;#P: gebären;#O: Person;gerecht;;
1,103,2;Nungals Haus exterminiert ungerechte Personen.;#S: Haus von Nungal;#P: exterminieren;#O: Personen;ungerecht;;
1,104,1;Mitleid und Tränen sind in seinen Mauern.;#S: Mitleid;#S: Tränen;#P: sein;in Mauern des Hauses;;
1,104,2;NN baut Haus mit Mitgefühl.;#S: NN;#P: bauen;mit Mitgefühl;#O: Haus;;
1,105,1;Das Haus ist dem Herzen der ungerechten Person angenehm.;#S: Haus;angenehm;#P: sein ;für Herz von ungerechten Person;;
1,105,2;Das Haus erfrischt seinen Geist.;#S: Haus;#P: erfrischen;#O: Geist von ungerechten Person;;;
1.106;Das Haus beruhigt das Herz seines Gottes für ihn.;#S: Haus;#P: beruhigen;#O: Herz von Gott von ungerechter Person;#O: für die ungerechte Person;;
1,107,1;Das Haus reinigt die ungerechte Person.;#S: Haus;#P: reinigen;#O: Person;ungerecht;;
1,107,2;Das Haus lässt die ungerechte Person erstrahlen.;#S: Haus;#P: erstrahlen;lassen;#O: Person;ungerecht;
1.108;Das Haus läutert die ungerechte Person.;#S: Haus;#P: läutern;#O: Person;ungerecht;;
1,11,1;Haus wählt die Guten und Bösen.;#S: Haus;#P: wählen;#O: Gute;#O: Böse;;
1,11,2;An macht seinen Namen groß.;#S: An;#P: groß machen;#O: Namen von An;;;
1,110;Gott des ungerechten Mannes preist Nungal.;#S: Gott von ungerechtem Mann ;#P: preisen;#O: Nungal;;;
1,111,1;Der ungerechte Mann preist Nungal.;#S: Mann;ungerecht;#P: preisen;#O: Nungal;;
1,111,2;Der ungerechte Mann proklamiert Nungals Herrlichkeit.;#S: Mann;ungerecht;#P: proklamieren;#O: Herrlichkeit von Nungal;;
1,112;Äußerung von Nungals Namen ist atemraubend.;#S: Äußerung von Nungals Namen;atemraubend;#P: sein;;;
1,116,1;Nungal ist die Oberste im Palast.;#S: Nungal;Oberste im Palast;#P: sein;;;
1,116,2;Nungal wacht über den ungerechten Mann im Palast.;#S: Nungal;#P: wachen;im Palast;#O: über den Mann;ungerecht;
1,118;Nungal gibt der Wohnstatt Glanz.;#S: Nungal;#P: geben;#O: Glanz;#O: Wohnstatt;;
1,12;Fundament des Hauses verfügt über große Herrlichkeit.;#S: Fundament von Haus;#P: verfügen;#O: über Herrlichkeit;groß;;
1,120,1;Nungals me-Machtmittel sind unantastbar. ;#S: me-Machtmittel von Nungal;unantastbar ;#P: sein;;;
1,120,2;Nungal ist die Vorderste.;#S: Nungal;Vorderste;#P: sein;;;
1,121;NN preisen Nungal.;#S: NN;#P: preisen;#O: Nungal;;;
1,13;Das Tor des Hauses ist gelbes Abendlicht.;#S: Tor von Haus;gelbes Abendlicht;#P: sein;;;
1,14,1;Die Treppen des Hauses sind offenmündige Drachen.;#S: Treppen von Haus;offenmündige Drachen;#P: sein;;;
1,14,2;Die Treppen des Hauses lauern Menschen auf.;#S: Treppen von Haus;#P: auflauern;#O: Menschen;;;
1,15;Der Türpfosten des Hauses ist ein großer Dolch.;#S: Türpfosten von Haus;großer Dolch;#P: sein;;;
1,16,1;Der Architrav des Hauses ist ein Skorpion.;#S: Architrav von Haus;Skorpion;#P: sein;;;
1,16,2;Der Skorpion rast aus dem Staub.;#S: Skorpion ;#P: rasen;aus Staub;;;
1,17;Die Überstände des Hauses sind Löwen.;#S: Überstände von Haus;Löwen;#P: sein;;;
1,18,1;Das Gewölbe des Hauses ist der Regenbogen.;#S: Gewölbe von Hauses;Regenbogen;#P: sein;;;
1,18,2;Schreckliche Ehrfurcht durchtränkt das Gewölbe des Hauses.;#S: Ehrfurcht;schrecklich;#P: durchtränken;#O: Gewölbe von Haus;;
1,19,1;Die Türangeln des Hauses sind Adler.;#S: Türangeln von Haus;Adler;#P: sein;;;
1,19,2;Die Klauen des Hauses ergreifen alles.;#S: Klauen von Hauses;#P: ergreifen;#O: alles;;;
1,2,1;Das Haus ist das Gefängnis der Götter.;#S: Haus;Gefängnis von Götter;#P: sein;;;
1,2,2;Das Haus ist  der erhabene Bestand von Himmel und Erde.;#S: Haus;erhabene Bestand von Himmel und Erde;#P: sein;;;
1,20,1;Die Tür des Hauses ist ein großer Berg.;#S: Tür von Haus;großer Berg;#P: sein;;;
1,20,2;Die Tür des Hauses öffnet sich nicht für die Bösen.;#S: Tür von Haus;#P: sich öffnen;nicht ;#O: für die Bösen ;;
1,21;Die Tür des Hauses öffnet sich für den Gerechten.;#S: Tür von Haus;#P: sich öffnen;#O: für den Gerechten ;;;
1,22,1;Die Schranken des Hauses sind wilde Löwen.;#S: Schranken von Haus;wilde Löwen;#P: sein;;;
1,22,2;Die Löwen verschließen in einer kräftigen Umarmung.;#S: Löwen;#P: verschließen;in kräftigen Umarmung;;;
1,23,1;Der Riegel des Hauses ist eine Pythonschlange.;#S: Riegel von Haus;Pythonschlange;#P: sein;;;
1,23,2;Die Zunge der Pythonschlange zischt.;#S: Zunge von Pythonschlange;#P: zischen;;;;
1,24,1;Der Türriegel des Hauses ist eine gehörnte Viper.;#S: Türriegel von Haus;gehörnte Viper;#P: sein;;;
1,24,2;Die gehörnte Viper schlittert an einen wilden Ort.;#S: Viper ;gehörnt;#P: schlittern;an wilden Ort;;
1,25;Das Haus überprüft Himmel und Erde.;#S: Haus;#P: überprüfen;#O: Himmel;#O: Erde;;
1,26,1;Ein Übeltäter entkommt dem Griff des Hauses nicht.;#S: Übeltäter;#P: entkommen ;nicht ;#O: Griff von Hauses;;
1,26,2;Das Haus schleift den Feind herum.;#S: Haus;#P: herumschleifen;#O: Feind;;;
1,27;Nungals Aura bedeckt Himmel und Erde.;#S: Aura von Nungal;#P: bedecken;#O: Himmel;#O: Erde;;
1,28;Nungal residiert auf seinem Podium.;#S: Nungal;#P: residieren;auf dem Podium von Nungal;;;
1,29,1;Nungal sitzt im Bezirk des Hauses.;#S: Nungal;#P: sitzen;im Bezirk von Haus;;;
1,29,2;Nungal kontrolliert das Land von dort.;#S: Nungal;#P: kontrollieren;von dem Bezirk von dem Haus ;#O: Land;;
1,3,1;Das Innere des Hauses ist Abendlicht.;#S: Innere von Haus;Abendlicht;#P: sein;;;
1,3,2;Das Innere des Hauses ist weit ausgebreitete Dämmerung.;#S: Innere von Haus;weit ausgebreitete Dämmerung;#P: sein;;;
1,3,3;Die Herrlichkeit des Hauses ängstigt.;#S: Herrlichkeit von Haus;#P: ängstigen;;;;
1,32,1;Das große Haus ist eine Falle.;#S: Haus;groß;Falle;#P: sein;;
1,32,2;Das große Haus lauert einem Feind auf.;#S: Haus;groß;#P: auflauern;#O: Feind;;
1,32,3;Das große Haus gibt dem Land guten Rat.;#S: Haus;groß;#P: geben;#O: Rat;gut;#O: Land
1,34,1;NN bringt Person hinein.;#S: NN;#P: hineinbringen;#O: Person;;;
1,34,2;Die Person widersteht der Aura des Hauses nicht.;#S: Person;#P: widerstehen;nicht ;#O: Aura von Haus;;
1,35,1;Die Götter verbeugen sich vor dem Ort des Hauses.;#S: Götter;#P: sich verbeugen;vor Ort von Haus;;;
1,35,2;Das Haus ist der Ort der Urteile.;#S: Haus;Ort von Urteilen;#P: sein;;;
1,36;Ninegala setzt sich auf ihr Podium.;#S: Ninegala;#P: sich setzen;auf dem Podium von Ninegala;;;
1,40;Die missbilligte Person gelangt ans Tor des großen Hauses.;#S: Person;missbilligt;#P: gelangen;#O: an Tor von dem großen Haus;;
1,42,1;Nungal ist die Herrin des Hauses.;#S:  Nungal;Herrin von Haus;#P: sein;;;
1,42,2;NN liefert die missbilligte Person in Nungals Hände.;#S: NN;#P: liefern;in Hände von Nungal;#O: Person;missbilligt;
1,43;NN greift die Person.;#S: NN;#P: greifen;#O: Person;;;
1,44;NN führt die missbilligte Person zum Haus von Leid.;#S: NN;#P: führen;zum Haus des Leides;#O: Person;missbilligt;
1,48;Ein mächtiger Mann kann seine Tür nicht öffnen.;#S: Mann;mächtig;#P: öffnen ;können;nicht;#O: Tür von Haus
1,5,1;Das Haus ist eine Falle für den Bösen.;#S: Haus;Falle für Böse;#P: sein;;;
1,5,2;Das Haus lässt den Bösen erzittern.;#S: Haus;#P: erzittern ;lassen;#O: Bösen;;
1,55;Das Innere des Tempels verursacht Leid.;#S: Innere von Tempel;#P: verursachen;#O: Leid;;;
1,56,1;Die Mauern des Tempels zermalmen böse Menschen.;#S: Mauern von Tempel;#P: zermalmen;#O: Menschen;böse;;
1,56,2;Die Mauern des Tempels gebären gerechte Menschen.;#S: Mauern von Tempel;#P: gebären;#O: Menschen;gerecht;;
1,57;Das wütende Herz des Tempels verursacht Leid.;#S: Herz von Tempels;wütend;#P: verursachen;#O: Leid;;
1,58;NN richtet Gefängnis für ein Fest her.;#S: NN;#P: herrichten;#O: Gefängnis;#O: für ein Fest;;
1,6,1;Das Haus ist ein geschickt gewebtes Netz.;#S: Haus;geschickt gewebtes Netz;#P: sein;;;
1,6,2;Das Haus sammelt Leute als Beute.;#S: Haus;#P: sammeln;als Beute;#O: Leute;;
1,64,1;An bestimmt ein Schicksal für Nungal.;#S: An;#P: bestimmen;#O: Schicksal;#O: für Nungal;;
1,64,2;Nungal ist die Tochter von An.;#S: Nungal;Tochter von An;#P: sein;;;
1,65,1;Enlil stattet Nungal mit einem Schicksal aus. ;#S: Enlil;#P: ausstatten;#O: Nungal;#O: mit einem Schicksal;;
1,65,2;Nungal ist Enlils Schwiegertochter.;#S: Nungal;Schwiegertochter von Enlil;#P: sein;;;
1,66;Götter geben die me-Machtmittel von Himmel und Erde in Nungals Hände.;#S: Götter;#P: geben;in Hände von Nungal;#O: me-Machtmittel von Himmel und Erde;;
1,67;Ereškigal weist Nungal ihre me-Machtmittel zu.;#S: Ereškigal;#P: zuweisen;#O: me-Machtmittel von Nungal;#O: Nungal;;
1,68,1;Utu steigt von der Unterwelt auf.;#S: Utu;#P: aufsteigen;von Unterwelt;;;
1,68,2;Nungal errichtet ihr Podium in der Unterwelt.;#S: Nungal;#P: errichten;in Unterwelt;#O: Podium von Nungal;;
1,69;Nungal ist die Göttin des großen Hauses.;#S: Nungal;Göttin von großem Haus;#P: sein;;;
1,7,1;Das Haus beobachtet Gerechte und Ungerechte. ;#S: Haus;#P: beobachten;#O: Gerechte;#O: Ungerechte;;
1,7,2;Ein Böser flüchtet nicht aus dem Haus.;#S: Böser;#P: flüchten;nicht ;aus Haus;;
1,73,1;Nungal ist Enlils wahre Verwalterin.;#S: Nungal;wahre Verwalterin von Enlil;#P: sein;;;
1,73,2;Enlil häuft Besitz für Nungal an.;#S: Enlil;#P: anhäufen;#O: Besitz;#O: für Nungal;;
1,79;Alle Länder sehen Nungal als ihre göttliche Mutter an.;#S: Länder;alle;#P: ansehen;als göttliche Mutter;#O: Nungal;
1,8,1;Der Ordalfluss tötet Gerechte nicht.;#S: Ordalfluss;#P: töten;nicht ;#O: Gerechte;;
1,8,2;Das Flussordal wählt einen Bösen.;#S: Flussordal;#P: wählen;Bösen;;;
1,83;Nungals Haus baut auf Mitgefühl auf.;#S: Haus von Nungal;#P: aufbauen ;#O: auf Mitgefühl;;;
1,84,1;Der Schatten des Hauses ist wie der einer Zypresse.;#S: Schatten des Hauses;#P: sein;wie der Schatten von einer Zypresse ;;;
1,84,2;Das Haus wächst an einem reinen Ort.;#S: Haus;#P: wachsen;an reinen Ort;;;
1,85,1;Birtum ist Nungals Ehemann.;#S: Birtum;Ehemann von Nungal;#P: sein;;;
1,85,2;Birtum wohnt dort mit Nungal.;#S: Birtum;#P: wohnen;in Haus;mit Nungal;;
1,86;Birtum setzt sich auf das Podium.;#S: Birtum;#P: sich setzen;auf Podium;;;
1,9;Niemand kennt das Innere des Hauses.;#S: Niemand;#P: kennen;#O: Inneres von Haus;;;
1,90;Nungals Bote ist der Stolz des Palastes.;#S: Bote von Nungal;Stolz von Palast;#P: sein;;;
1,93,1;Der Vorsteher platziert ein Bett für Nungal im Haus.;#S: Vorsteher;#P: platzieren;im Haus;#O: Bett;#O: für Nungal;
1,93,2;Herrlichkeit durchtränkt das Haus.;#S: Herrlichkeit;#P: durchtränken;#O: Haus;;;
1,94;Nezila arrangiert freudige Ereignisse.;#S: Nezila;#P: arrangieren;#O: Ereignisse;freudig;;
1,99,1;Nindimgul bringt NN in Nungals Haus des Lebens.;#S: Nindimgul;#P: bringen;in Haus von Lebens von Nungal;#O: NN;;
1,99,2;Nindimgul bewacht NN.;#S: Nindimgul;#P: bewachen;#O: NN;;;
