Verg. georg. 4,453–527;Eurydike – stirbt auf der Flucht durch einen Schlangenbiss.;#S: Eurydike;#P: sterben;auf der Flucht durch einen Schlangenbiss;;;;
Verg. georg. 4,453–527;Orpheus – sehnt sich schmerzlich – (nach Eurydike).;#S: Orpheus;#P: sich sehnen;schmerzlich;nach Eurydike;;;
Verg. georg. 4,453–527;Orpheus – besingt fortwährend – Eurydike.;#S: Orpheus;#P: besingen;fortwährend;Eurydike;;;
Verg. georg. 4,453–527;Orpheus – betritt (singend) – die Unterwelt.;#S: Orpheus;#P: betreten;singend;#O: Unterwelt;;;
Verg. georg. 4,453–527;Orpheus – musiziert in der Unterwelt.;#S: Orpheus;#P: musizieren;in der Unterwelt;;;;
Verg. georg. 4,453–527;Die Unterwelt – ist starr vor Staunen.;#S: Unterwelt;starr vor Staunen;#P: sein;;;;
Verg. georg. 4,453–527;Orpheus – gelangt zum furchtbaren Herrscher (der Unterwelt).;#S: Orpheus;#P: gelangen;zum furchtbaren Herrscher der Unterwelt;;;;
Verg. georg. 4,453–527;(Proserpina) – gibt wieder – Eurydike.;#S: Proserpina;#P: wiedergeben;#O: Eurydike;;;;
Verg. georg. 4,453–527;Proserpina – gebietet – dass Eurydike hinter Orpheus geht.;#S: Proserpina;#P: gebieten;dass Eurydike hinter Orpheus gehe;;;;
Verg. georg. 4,453–527;(Proserpina – verbietet – dem Orpheus – das Zurückblicken.);#S: Proserpina;#P: verbieten;#O: Zurückblicken;Orpheus;;;
Verg. georg. 4,453–527;Orpheus und Eurydike – machen sich auf den Weg nach oben.;#S: Orpheus;#S: Eurydike;#P: sich auf den Weg machen;nach oben;;;
Verg. georg. 4,453–527;Eurydike – geht hinter Orpheus.;#S: Eurydike;#P: gehen;hinter Orpheus;;;;
Verg. georg. 4,453–527;Orpheus und Eurydike – sind fast am Licht.;#S: Orpheus;#S: Eurydike;fast am Licht;#P: sein;;;
Verg. georg. 4,453–527;Orpheus – missachtet – das Gebot der Proserpina.;#S: Orpheus;#P: missachten;#O: Gebot;von Proserpina;;;
Verg. georg. 4,453–527;Orpheus – bleibt stehen.;#S: Orpheus;#P: stehen bleiben;;;;;
Verg. georg. 4,453–527;Orpheus – sieht sich um – nach Eurydike.;#S: Orpheus;#P: sich umsehen;nach Eurydike;;;;
Verg. georg. 4,453–527;Donnern – ertönt dreimal aus der Unterwelt.;#S: Donnern;#P: ertönen;dreimal;aus der Unterwelt;;;
Verg. georg. 4,453–527;Eurydike – verschwindet zurück in die Unterwelt.;#S: Eurydike;#P: verschwinden;zurück in der Unterwelt;;;;
Verg. georg. 4,453–527;Der Fährmann der Unterwelt – verbietet – die erneute Überquerung des Sumpfes – dem Orpheus.;#S: Fährmann;von der Unterwelt;#P: verbieten;#O: Überquerung;erneut;von dem Sumpf;#O: Orpheus
Verg. georg. 4,453–527;Orpheus – weint und klagt.;#S: Orpheus;#P: weinen;;;;;
Verg. georg. 4,453–527;Die thrakischen Frauen – töten und zerfleischen – Orpheus.;#S: Frauen;thrakische;#P: töten;;#O: Orpheus;;
Verg. georg. 4,453–527;Der Kopf des Orpheus – lallt noch immer – Eurydikes Namen.;#S: Kopf;von Orpheus;#P: lallen;noch immer;#O: Name;von Eurydike;
